%YAML 1.1
%TAG !u! tag:unity3d.com,2011:
--- !u!114 &11400000
MonoBehaviour:
  m_ObjectHideFlags: 0
  m_CorrespondingSourceObject: {fileID: 0}
  m_PrefabInstance: {fileID: 0}
  m_PrefabAsset: {fileID: 0}
  m_GameObject: {fileID: 0}
  m_Enabled: 1
  m_EditorHideFlags: 0
  m_Script: {fileID: 11500000, guid: a4f4450d39953f74384057d9fe6d894a, type: 3}
  m_Name: pink_color
  m_EditorClassIdentifier: 
  type: 0
  color: {r: 1, g: 0.57254905, b: 0.854902, a: 1}
  backgroundColor: {r: 0.1137255, g: 0.08627451, b: 0.078431375, a: 1}
